{"failedCount":0,"prefixedPath":"classpath:aula_karate\/star_wars\/sw.feature","packageQualifiedName":"aula_karate.star_wars.sw","loopIndex":-1,"relativePath":"aula_karate\/star_wars\/sw.feature","scenarioResults":[{"sectionIndex":0,"stepResults":[{"result":{"nanos":53914200,"millis":53.9142,"status":"passed"},"step":{"line":4,"prefix":"Given","index":0,"text":"url 'https:\/\/swapi.dev\/api\/planets\/60'"}},{"result":{"nanos":2268705300,"millis":2268.7053,"status":"passed"},"step":{"line":5,"prefix":"When","index":1,"text":"method get"},"stepLog":"11:25:01.754 request:\n1 > GET https:\/\/swapi.dev\/api\/planets\/60\n1 > Host: swapi.dev\n1 > Connection: Keep-Alive\n1 > User-Agent: Apache-HttpClient\/4.5.13 (Java\/17.0.8)\n1 > Accept-Encoding: gzip,deflate\n\n\n11:25:03.837 response time in milliseconds: 2066\n1 < 200\n1 < Server: nginx\/1.16.1\n1 < Date: Mon, 13 Nov 2023 14:25:05 GMT\n1 < Content-Type: application\/json\n1 < Transfer-Encoding: chunked\n1 < Connection: keep-alive\n1 < Vary: Accept, Cookie\n1 < X-Frame-Options: SAMEORIGIN\n1 < ETag: \"bf079c439ca6e4f158fcc0144fc8323d\"\n1 < Allow: GET, HEAD, OPTIONS\n1 < Strict-Transport-Security: max-age=15768000\n{\"films\":[],\"edited\":\"2014-12-20T20:58:18.525000Z\",\"created\":\"2014-12-20T20:18:36.256000Z\",\"climate\":\"unknown\",\"rotation_period\":\"unknown\",\"url\":\"https:\\\/\\\/swapi.dev\\\/api\\\/planets\\\/60\\\/\",\"population\":\"unknown\",\"orbital_period\":\"unknown\",\"surface_water\":\"unknown\",\"diameter\":\"unknown\",\"gravity\":\"unknown\",\"name\":\"Umbara\",\"residents\":[\"https:\\\/\\\/swapi.dev\\\/api\\\/people\\\/82\\\/\"],\"terrain\":\"unknown\"}\n"},{"result":{"nanos":21100,"millis":0.0211,"status":"passed"},"step":{"line":6,"prefix":"Then","index":2,"text":"status 200"}}],"executorName":"main","line":3,"name":"Testando retorno para o planeta 60","description":"","durationMillis":2322.6406,"startTime":1699885501508,"failed":false,"refId":"[1:3]","endTime":1699885503839,"exampleIndex":-1},{"sectionIndex":1,"stepResults":[{"result":{"nanos":352100,"millis":0.3521,"status":"passed"},"step":{"line":9,"prefix":"Given","index":0,"text":"url 'https:\/\/swapi.dev\/api\/vehicles\/'"}},{"result":{"nanos":2884073100,"millis":2884.0731,"status":"passed"},"step":{"line":10,"prefix":"When","index":1,"text":"method get"},"stepLog":"11:25:03.848 request:\n1 > GET https:\/\/swapi.dev\/api\/vehicles\/\n1 > Host: swapi.dev\n1 > Connection: Keep-Alive\n1 > User-Agent: Apache-HttpClient\/4.5.13 (Java\/17.0.8)\n1 > Accept-Encoding: gzip,deflate\n\n\n11:25:06.728 response time in milliseconds: 2878\n1 < 200\n1 < Server: nginx\/1.16.1\n1 < Date: Mon, 13 Nov 2023 14:25:08 GMT\n1 < Content-Type: application\/json\n1 < Transfer-Encoding: chunked\n1 < Connection: keep-alive\n1 < Vary: Accept, Cookie\n1 < X-Frame-Options: SAMEORIGIN\n1 < ETag: \"07ce0a7ff4d543e56c3c64af89bfc766\"\n1 < Allow: GET, HEAD, OPTIONS\n1 < Strict-Transport-Security: max-age=15768000\n{\"next\":\"https:\\\/\\\/swapi.dev\\\/api\\\/vehicles\\\/?page=2\",\"previous\":null,\"count\":39,\"results\":[{\"max_atmosphering_speed\":\"30\",\"cargo_capacity\":\"50000\",\"films\":[\"https:\\\/\\\/swapi.dev\\\/api\\\/films\\\/1\\\/\",\"https:\\\/\\\/swapi.dev\\\/api\\\/films\\\/5\\\/\"],\"passengers\":\"30\",\"pilots\":[],\"edited\":\"2014-12-20T21:30:21.661000Z\",\"consumables\":\"2 months\",\"created\":\"2014-12-10T15:36:25.724000Z\",\"length\":\"36.8 \",\"url\":\"https:\\\/\\\/swapi.dev\\\/api\\\/vehicles\\\/4\\\/\",\"manufacturer\":\"Corellia Mining Corporation\",\"crew\":\"46\",\"vehicle_class\":\"wheeled\",\"cost_in_credits\":\"150000\",\"name\":\"Sand Crawler\",\"model\":\"Digger Crawler\"},{\"max_atmosphering_speed\":\"1200\",\"cargo_capacity\":\"50\",\"films\":[\"https:\\\/\\\/swapi.dev\\\/api\\\/films\\\/1\\\/\"],\"passengers\":\"1\",\"pilots\":[],\"edited\":\"2014-12-20T21:30:21.665000Z\",\"consumables\":\"0\",\"created\":\"2014-12-10T16:01:52.434000Z\",\"length\":\"10.4 \",\"url\":\"https:\\\/\\\/swapi.dev\\\/api\\\/vehicles\\\/6\\\/\",\"manufacturer\":\"Incom Corporation\",\"crew\":\"1\",\"vehicle_class\":\"repulsorcraft\",\"cost_in_credits\":\"14500\",\"name\":\"T-16 skyhopper\",\"model\":\"T-16 skyhopper\"},{\"max_atmosphering_speed\":\"250\",\"cargo_capacity\":\"5\",\"films\":[\"https:\\\/\\\/swapi.dev\\\/api\\\/films\\\/1\\\/\"],\"passengers\":\"1\",\"pilots\":[],\"edited\":\"2014-12-20T21:30:21.668000Z\",\"consumables\":\"unknown\",\"created\":\"2014-12-10T16:13:52.586000Z\",\"length\":\"3.4 \",\"url\":\"https:\\\/\\\/swapi.dev\\\/api\\\/vehicles\\\/7\\\/\",\"manufacturer\":\"SoroSuub Corporation\",\"crew\":\"1\",\"vehicle_class\":\"repulsorcraft\",\"cost_in_credits\":\"10550\",\"name\":\"X-34 landspeeder\",\"model\":\"X-34 landspeeder\"},{\"max_atmosphering_speed\":\"1200\",\"cargo_capacity\":\"65\",\"films\":[\"https:\\\/\\\/swapi.dev\\\/api\\\/films\\\/1\\\/\",\"https:\\\/\\\/swapi.dev\\\/api\\\/films\\\/2\\\/\",\"https:\\\/\\\/swapi.dev\\\/api\\\/films\\\/3\\\/\"],\"passengers\":\"0\",\"pilots\":[],\"edited\":\"2014-12-20T21:30:21.670000Z\",\"consumables\":\"2 days\",\"created\":\"2014-12-10T16:33:52.860000Z\",\"length\":\"6.4\",\"url\":\"https:\\\/\\\/swapi.dev\\\/api\\\/vehicles\\\/8\\\/\",\"manufacturer\":\"Sienar Fleet Systems\",\"crew\":\"1\",\"vehicle_class\":\"starfighter\",\"cost_in_credits\":\"unknown\",\"name\":\"TIE\\\/LN starfighter\",\"model\":\"Twin Ion Engine\\\/Ln Starfighter\"},{\"max_atmosphering_speed\":\"650\",\"cargo_capacity\":\"10\",\"films\":[\"https:\\\/\\\/swapi.dev\\\/api\\\/films\\\/2\\\/\"],\"passengers\":\"0\",\"pilots\":[\"https:\\\/\\\/swapi.dev\\\/api\\\/people\\\/1\\\/\",\"https:\\\/\\\/swapi.dev\\\/api\\\/people\\\/18\\\/\"],\"edited\":\"2014-12-20T21:30:21.672000Z\",\"consumables\":\"none\",\"created\":\"2014-12-15T12:22:12Z\",\"length\":\"4.5\",\"url\":\"https:\\\/\\\/swapi.dev\\\/api\\\/vehicles\\\/14\\\/\",\"manufacturer\":\"Incom corporation\",\"crew\":\"2\",\"vehicle_class\":\"airspeeder\",\"cost_in_credits\":\"unknown\",\"name\":\"Snowspeeder\",\"model\":\"t-47 airspeeder\"},{\"max_atmosphering_speed\":\"850\",\"cargo_capacity\":\"none\",\"films\":[\"https:\\\/\\\/swapi.dev\\\/api\\\/films\\\/2\\\/\",\"https:\\\/\\\/swapi.dev\\\/api\\\/films\\\/3\\\/\"],\"passengers\":\"0\",\"pilots\":[],\"edited\":\"2014-12-20T21:30:21.675000Z\",\"consumables\":\"2 days\",\"created\":\"2014-12-15T12:33:15.838000Z\",\"length\":\"7.8\",\"url\":\"https:\\\/\\\/swapi.dev\\\/api\\\/vehicles\\\/16\\\/\",\"manufacturer\":\"Sienar Fleet Systems\",\"crew\":\"1\",\"vehicle_class\":\"space\\\/planetary bomber\",\"cost_in_credits\":\"unknown\",\"name\":\"TIE bomber\",\"model\":\"TIE\\\/sa bomber\"},{\"max_atmosphering_speed\":\"60\",\"cargo_capacity\":\"1000\",\"films\":[\"https:\\\/\\\/swapi.dev\\\/api\\\/films\\\/2\\\/\",\"https:\\\/\\\/swapi.dev\\\/api\\\/films\\\/3\\\/\"],\"passengers\":\"40\",\"pilots\":[],\"edited\":\"2014-12-20T21:30:21.677000Z\",\"consumables\":\"unknown\",\"created\":\"2014-12-15T12:38:25.937000Z\",\"length\":\"20\",\"url\":\"https:\\\/\\\/swapi.dev\\\/api\\\/vehicles\\\/18\\\/\",\"manufacturer\":\"Kuat Drive Yards, Imperial Department of Military Research\",\"crew\":\"5\",\"vehicle_class\":\"assault walker\",\"cost_in_credits\":\"unknown\",\"name\":\"AT-AT\",\"model\":\"All Terrain Armored Transport\"},{\"max_atmosphering_speed\":\"90\",\"cargo_capacity\":\"200\",\"films\":[\"https:\\\/\\\/swapi.dev\\\/api\\\/films\\\/2\\\/\",\"https:\\\/\\\/swapi.dev\\\/api\\\/films\\\/3\\\/\"],\"passengers\":\"0\",\"pilots\":[\"https:\\\/\\\/swapi.dev\\\/api\\\/people\\\/13\\\/\"],\"edited\":\"2014-12-20T21:30:21.679000Z\",\"consumables\":\"none\",\"created\":\"2014-12-15T12:46:42.384000Z\",\"length\":\"2\",\"url\":\"https:\\\/\\\/swapi.dev\\\/api\\\/vehicles\\\/19\\\/\",\"manufacturer\":\"Kuat Drive Yards, Imperial Department of Military Research\",\"crew\":\"2\",\"vehicle_class\":\"walker\",\"cost_in_credits\":\"unknown\",\"name\":\"AT-ST\",\"model\":\"All Terrain Scout Transport\"},{\"max_atmosphering_speed\":\"1500\",\"cargo_capacity\":\"10\",\"films\":[\"https:\\\/\\\/swapi.dev\\\/api\\\/films\\\/2\\\/\"],\"passengers\":\"0\",\"pilots\":[],\"edited\":\"2014-12-20T21:30:21.681000Z\",\"consumables\":\"1 day\",\"created\":\"2014-12-15T12:58:50.530000Z\",\"length\":\"7\",\"url\":\"https:\\\/\\\/swapi.dev\\\/api\\\/vehicles\\\/20\\\/\",\"manufacturer\":\"Bespin Motors\",\"crew\":\"2\",\"vehicle_class\":\"repulsorcraft\",\"cost_in_credits\":\"75000\",\"name\":\"Storm IV Twin-Pod cloud car\",\"model\":\"Storm IV Twin-Pod\"},{\"max_atmosphering_speed\":\"100\",\"cargo_capacity\":\"2000000\",\"films\":[\"https:\\\/\\\/swapi.dev\\\/api\\\/films\\\/3\\\/\"],\"passengers\":\"500\",\"pilots\":[],\"edited\":\"2014-12-20T21:30:21.684000Z\",\"consumables\":\"Live food tanks\",\"created\":\"2014-12-18T10:44:14.217000Z\",\"length\":\"30\",\"url\":\"https:\\\/\\\/swapi.dev\\\/api\\\/vehicles\\\/24\\\/\",\"manufacturer\":\"Ubrikkian Industries Custom Vehicle Division\",\"crew\":\"26\",\"vehicle_class\":\"sail barge\",\"cost_in_credits\":\"285000\",\"name\":\"Sail barge\",\"model\":\"Modified Luxury Sail Barge\"}]}\n"},{"result":{"nanos":23200,"millis":0.0232,"status":"passed"},"step":{"line":11,"prefix":"Then","index":2,"text":"status 200"}}],"executorName":"main","line":8,"name":"Testando retorno para os veículos","description":"","durationMillis":2884.4484,"startTime":1699885503847,"failed":false,"refId":"[2:8]","endTime":1699885506732,"exampleIndex":-1}],"callDepth":0,"name":"Testando API do Star Wars","description":"","resultDate":"2023-11-13 11:25:06 AM","durationMillis":5207.089,"passedCount":2}